{
  "version": "15.0.7",
  "vulnerabilities": [
    {
      "id": "7bc5dcee26aa95d6a705a138196c3d86dc945d0d5846fc339e6283c111ce81da",
      "category": "sast",
      "name": "android_webview_ignore_ssl",
      "description": "Insecure WebView Implementation. WebView ignores SSL Certificate errors and accept any SSL Certificate. This application is vulnerable to MITM attacks",
      "severity": "High",
      "scanner": {
        "id": "mobsf",
        "name": "MobSF"
      },
      "location": {
        "file": "java-android-multimodule/app/src/main/java/opensecurity/webviewignoressl/MainActivity.java",
        "start_line": 46
      },
      "identifiers": [
        {
          "type": "mobsf_rule_id",
          "name": "MobSF Rule ID android_webview_ignore_ssl",
          "value": "android_webview_ignore_ssl"
        }
      ]
    },
    {
      "id": "7381a2edd0b090880f3a1673e377d119d83537e074da7fbf4c356410dc1177cd",
      "category": "sast",
      "name": "android_webview_ignore_ssl",
      "description": "Insecure WebView Implementation. WebView ignores SSL Certificate errors and accept any SSL Certificate. This application is vulnerable to MITM attacks",
      "severity": "High",
      "scanner": {
        "id": "mobsf",
        "name": "MobSF"
      },
      "location": {
        "file": "java-android-multimodule/app/src/main/java/opensecurity/webviewignoressl/MainActivity.java",
        "start_line": 50
      },
      "identifiers": [
        {
          "type": "mobsf_rule_id",
          "name": "MobSF Rule ID android_webview_ignore_ssl",
          "value": "android_webview_ignore_ssl"
        }
      ]
    },
    {
      "id": "385c28a821e4e64421c3816a30501190558e6f93d1ba62adfa127b35cd95153b",
      "category": "sast",
      "name": "android_weak_ciphers",
      "description": "Weak Encryption algorithm used",
      "severity": "High",
      "scanner": {
        "id": "mobsf",
        "name": "MobSF"
      },
      "location": {
        "file": "java-android-apk/nested/android.apk",
        "start_line": 46
      },
      "identifiers": [
        {
          "type": "mobsf_rule_id",
          "name": "MobSF Rule ID android_weak_ciphers",
          "value": "android_weak_ciphers"
        }
      ]
    },
    {
      "id": "c439e45cdc8fdc0667d1972870f8953c3fbc272af7d4b1a9e9f320c5eb1461e8",
      "category": "sast",
      "name": "android_weak_ciphers",
      "description": "Weak Encryption algorithm used",
      "severity": "High",
      "scanner": {
        "id": "mobsf",
        "name": "MobSF"
      },
      "location": {
        "file": "java-android-apk/android.apk",
        "start_line": 46
      },
      "identifiers": [
        {
          "type": "mobsf_rule_id",
          "name": "MobSF Rule ID android_weak_ciphers",
          "value": "android_weak_ciphers"
        }
      ]
    },
    {
      "id": "34465e9684fc0da21f895ee103512793f829c8f5655e283bb0fcaf05a7f7b9fa",
      "category": "sast",
      "name": "android_webview_ignore_ssl",
      "description": "Insecure WebView Implementation. WebView ignores SSL Certificate errors and accept any SSL Certificate. This application is vulnerable to MITM attacks",
      "severity": "High",
      "scanner": {
        "id": "mobsf",
        "name": "MobSF"
      },
      "location": {
        "file": "java-android/app/src/main/java/opensecurity/webviewignoressl/MainActivity.java",
        "start_line": 50
      },
      "identifiers": [
        {
          "type": "mobsf_rule_id",
          "name": "MobSF Rule ID android_webview_ignore_ssl",
          "value": "android_webview_ignore_ssl"
        }
      ]
    },
    {
      "id": "e42d6ff9f2d646a77464a90d000fe49b925e06f39d822a73cedfb1b5dd62001d",
      "category": "sast",
      "name": "android_webview_ignore_ssl",
      "description": "Insecure WebView Implementation. WebView ignores SSL Certificate errors and accept any SSL Certificate. This application is vulnerable to MITM attacks",
      "severity": "High",
      "scanner": {
        "id": "mobsf",
        "name": "MobSF"
      },
      "location": {
        "file": "java-android/app/src/main/java/opensecurity/webviewignoressl/MainActivity.java",
        "start_line": 46
      },
      "identifiers": [
        {
          "type": "mobsf_rule_id",
          "name": "MobSF Rule ID android_webview_ignore_ssl",
          "value": "android_webview_ignore_ssl"
        }
      ]
    },
    {
      "id": "1e77cf11da8fdcceb5ce62ced7719145bd71fbdee2a7e7b0995eb4125ea0d313",
      "category": "sast",
      "name": "android_weak_ciphers",
      "description": "Weak Encryption algorithm used",
      "severity": "High",
      "scanner": {
        "id": "mobsf",
        "name": "MobSF"
      },
      "location": {
        "file": "java-android-apk/nested/android.apk",
        "start_line": 29
      },
      "identifiers": [
        {
          "type": "mobsf_rule_id",
          "name": "MobSF Rule ID android_weak_ciphers",
          "value": "android_weak_ciphers"
        }
      ]
    },
    {
      "id": "9717504683feb4f7838ec2881dd8e9eef7b06ce2cfd8bf79361d231de95a5b17",
      "category": "sast",
      "name": "android_webview_ignore_ssl",
      "description": "Insecure WebView Implementation. WebView ignores SSL Certificate errors and accept any SSL Certificate. This application is vulnerable to MITM attacks",
      "severity": "High",
      "scanner": {
        "id": "mobsf",
        "name": "MobSF"
      },
      "location": {
        "file": "java-android-multimodule/heavily/nested/module/hello/src/main/java/opensecurity/webviewignoressl/MainActivity.java",
        "start_line": 50
      },
      "identifiers": [
        {
          "type": "mobsf_rule_id",
          "name": "MobSF Rule ID android_webview_ignore_ssl",
          "value": "android_webview_ignore_ssl"
        }
      ]
    },
    {
      "id": "b4ea7032fe496194d89c5f24b4ce9bd6756b333eb583121fe32cf82bbf71ded2",
      "category": "sast",
      "name": "android_webview_ignore_ssl",
      "description": "Insecure WebView Implementation. WebView ignores SSL Certificate errors and accept any SSL Certificate. This application is vulnerable to MITM attacks",
      "severity": "High",
      "scanner": {
        "id": "mobsf",
        "name": "MobSF"
      },
      "location": {
        "file": "java-android-multimodule/heavily/nested/module/hello/src/main/java/opensecurity/webviewignoressl/MainActivity.java",
        "start_line": 46
      },
      "identifiers": [
        {
          "type": "mobsf_rule_id",
          "name": "MobSF Rule ID android_webview_ignore_ssl",
          "value": "android_webview_ignore_ssl"
        }
      ]
    },
    {
      "id": "38105e91b6bd9d75ae6b5554b5f52dce2eaa84ec403da3c83680b2120fb04463",
      "category": "sast",
      "name": "ios_swift_sha1_collision",
      "description": "SHA1 is a weak hash known to have hash collisions.",
      "severity": "High",
      "scanner": {
        "id": "mobsf",
        "name": "MobSF"
      },
      "location": {
        "file": "swift-ios/App/Main.swift",
        "start_line": 20
      },
      "identifiers": [
        {
          "type": "mobsf_rule_id",
          "name": "MobSF Rule ID ios_swift_sha1_collision",
          "value": "ios_swift_sha1_collision"
        }
      ]
    },
    {
      "id": "b8b7525ddc249872bdb9b0d82164e97f3f53720d87a4b161d72b7a6353b5bc90",
      "category": "sast",
      "name": "android_webview_ignore_ssl",
      "description": "Insecure WebView Implementation. WebView ignores SSL Certificate errors and accept any SSL Certificate. This application is vulnerable to MITM attacks",
      "severity": "High",
      "scanner": {
        "id": "mobsf",
        "name": "MobSF"
      },
      "location": {
        "file": "java-android-multimodule/anotherModule/src/main/java/opensecurity/webviewignoressl/MainActivity.java",
        "start_line": 50
      },
      "identifiers": [
        {
          "type": "mobsf_rule_id",
          "name": "MobSF Rule ID android_webview_ignore_ssl",
          "value": "android_webview_ignore_ssl"
        }
      ]
    },
    {
      "id": "e182b14a24a68ca0505716c58751a90f542cd43fe3a97482aaf6ce450397c8d6",
      "category": "sast",
      "name": "android_webview_ignore_ssl",
      "description": "Insecure WebView Implementation. WebView ignores SSL Certificate errors and accept any SSL Certificate. This application is vulnerable to MITM attacks",
      "severity": "High",
      "scanner": {
        "id": "mobsf",
        "name": "MobSF"
      },
      "location": {
        "file": "java-android-multimodule/anotherModule/src/main/java/opensecurity/webviewignoressl/MainActivity.java",
        "start_line": 46
      },
      "identifiers": [
        {
          "type": "mobsf_rule_id",
          "name": "MobSF Rule ID android_webview_ignore_ssl",
          "value": "android_webview_ignore_ssl"
        }
      ]
    },
    {
      "id": "c1c47c8b0329da35fc6e9862a3f373aef3bceae2e78d24e5f76cf9805b1c1567",
      "category": "sast",
      "name": "android_weak_ciphers",
      "description": "Weak Encryption algorithm used",
      "severity": "High",
      "scanner": {
        "id": "mobsf",
        "name": "MobSF"
      },
      "location": {
        "file": "java-android-apk/android.apk",
        "start_line": 29
      },
      "identifiers": [
        {
          "type": "mobsf_rule_id",
          "name": "MobSF Rule ID android_weak_ciphers",
          "value": "android_weak_ciphers"
        }
      ]
    },
    {
      "id": "8cb2f2e183622080d6980504b6cdfa8d487dae657f16d1fa1276d992e8e2768f",
      "category": "sast",
      "name": "android_sql_raw_query",
      "description": "App uses SQLite Database and execute raw SQL query. Untrusted user input in raw SQL queries can cause SQL Injection. Also sensitive information should be encrypted and written to the database.",
      "severity": "Medium",
      "scanner": {
        "id": "mobsf",
        "name": "MobSF"
      },
      "location": {
        "file": "java-android-apk/android.apk",
        "start_line": 14
      },
      "identifiers": [
        {
          "type": "mobsf_rule_id",
          "name": "MobSF Rule ID android_sql_raw_query",
          "value": "android_sql_raw_query"
        }
      ]
    },
    {
      "id": "2b4b31e2721c5249d8b56205a785aa06651827f3aa3a2ad60d0c94975f2cea6a",
      "category": "sast",
      "name": "android_sql_raw_query",
      "description": "App uses SQLite Database and execute raw SQL query. Untrusted user input in raw SQL queries can cause SQL Injection. Also sensitive information should be encrypted and written to the database.",
      "severity": "Medium",
      "scanner": {
        "id": "mobsf",
        "name": "MobSF"
      },
      "location": {
        "file": "java-android-apk/android.apk",
        "start_line": 4
      },
      "identifiers": [
        {
          "type": "mobsf_rule_id",
          "name": "MobSF Rule ID android_sql_raw_query",
          "value": "android_sql_raw_query"
        }
      ]
    },
    {
      "id": "902074e008bb104b996b22174feadbec9d3e0495b4251e1663298295634315f0",
      "category": "sast",
      "name": "android_sql_raw_query",
      "description": "App uses SQLite Database and execute raw SQL query. Untrusted user input in raw SQL queries can cause SQL Injection. Also sensitive information should be encrypted and written to the database.",
      "severity": "Medium",
      "scanner": {
        "id": "mobsf",
        "name": "MobSF"
      },
      "location": {
        "file": "java-android-apk/nested/android.apk",
        "start_line": 4
      },
      "identifiers": [
        {
          "type": "mobsf_rule_id",
          "name": "MobSF Rule ID android_sql_raw_query",
          "value": "android_sql_raw_query"
        }
      ]
    },
    {
      "id": "cb54b16fb59b4878f49fe1b4e84a0651cd127aafad9a6d2d0c1aff7ef91d6c56",
      "category": "sast",
      "name": "android_sql_raw_query",
      "description": "App uses SQLite Database and execute raw SQL query. Untrusted user input in raw SQL queries can cause SQL Injection. Also sensitive information should be encrypted and written to the database.",
      "severity": "Medium",
      "scanner": {
        "id": "mobsf",
        "name": "MobSF"
      },
      "location": {
        "file": "java-android-apk/nested/android.apk",
        "start_line": 14
      },
      "identifiers": [
        {
          "type": "mobsf_rule_id",
          "name": "MobSF Rule ID android_sql_raw_query",
          "value": "android_sql_raw_query"
        }
      ]
    },
    {
      "id": "fdf322e10b18a4ad8d57f8c8c5639d042502f1fc8bb85e5113d64d37844fde13",
      "category": "sast",
      "name": "android_sql_raw_query",
      "description": "App uses SQLite Database and execute raw SQL query. Untrusted user input in raw SQL queries can cause SQL Injection. Also sensitive information should be encrypted and written to the database.",
      "severity": "Medium",
      "scanner": {
        "id": "mobsf",
        "name": "MobSF"
      },
      "location": {
        "file": "java-android-apk/android.apk",
        "start_line": 5
      },
      "identifiers": [
        {
          "type": "mobsf_rule_id",
          "name": "MobSF Rule ID android_sql_raw_query",
          "value": "android_sql_raw_query"
        }
      ]
    },
    {
      "id": "150655f552ab8b976f8ff4aed909ea58c087d1e82c8b2f0c2d3a84358b5900cd",
      "category": "sast",
      "name": "android_sql_raw_query",
      "description": "App uses SQLite Database and execute raw SQL query. Untrusted user input in raw SQL queries can cause SQL Injection. Also sensitive information should be encrypted and written to the database.",
      "severity": "Medium",
      "scanner": {
        "id": "mobsf",
        "name": "MobSF"
      },
      "location": {
        "file": "java-android-apk/nested/android.apk",
        "start_line": 5
      },
      "identifiers": [
        {
          "type": "mobsf_rule_id",
          "name": "MobSF Rule ID android_sql_raw_query",
          "value": "android_sql_raw_query"
        }
      ]
    }
  ],
  "dependency_files": [],
  "scan": {
    "analyzer": {
      "id": "mobsf",
      "name": "MobSF",
      "url": "https://gitlab.com/gitlab-org/security-products/analyzers/mobsf",
      "vendor": {
        "name": "GitLab"
      },
      "version": "4.5.5"
    },
    "scanner": {
      "id": "mobsf",
      "name": "MobSF",
      "url": "https://github.com/MobSF/Mobile-Security-Framework-MobSF",
      "vendor": {
        "name": "GitLab"
      },
      "version": "3.6.0-gitlab.1"
    },
    "type": "sast",
    "start_time": "2023-11-16T13:18:31",
    "end_time": "2023-11-16T13:18:58",
    "status": "success"
  }
}
