{
  "version": "15.0.7",
  "vulnerabilities": [
    {
      "id": "c47121982f08b8de1311031caa685f24dd8fbf658ccbf6b75610ca0c4729f222",
      "category": "sast",
      "name": "android_webview_ignore_ssl",
      "description": "Insecure WebView Implementation. WebView ignores SSL Certificate errors and accept any SSL Certificate. This application is vulnerable to MITM attacks",
      "severity": "High",
      "scanner": {
        "id": "mobsf",
        "name": "MobSF"
      },
      "location": {
        "file": "anotherModule/src/main/java/opensecurity/webviewignoressl/MainActivity.java",
        "start_line": 46
      },
      "identifiers": [
        {
          "type": "mobsf_rule_id",
          "name": "MobSF Rule ID android_webview_ignore_ssl",
          "value": "android_webview_ignore_ssl"
        }
      ]
    },
    {
      "id": "99f03c7367e85043002884c3b65cb13ddc6f2dc46f43e9432e3139d667f25bc0",
      "category": "sast",
      "name": "android_webview_ignore_ssl",
      "description": "Insecure WebView Implementation. WebView ignores SSL Certificate errors and accept any SSL Certificate. This application is vulnerable to MITM attacks",
      "severity": "High",
      "scanner": {
        "id": "mobsf",
        "name": "MobSF"
      },
      "location": {
        "file": "anotherModule/src/main/java/opensecurity/webviewignoressl/MainActivity.java",
        "start_line": 50
      },
      "identifiers": [
        {
          "type": "mobsf_rule_id",
          "name": "MobSF Rule ID android_webview_ignore_ssl",
          "value": "android_webview_ignore_ssl"
        }
      ]
    },
    {
      "id": "6c147aefd079833524f34ac8e4ffebfedf8e60d54ee6b733f3ec90adb21e8459",
      "category": "sast",
      "name": "android_webview_ignore_ssl",
      "description": "Insecure WebView Implementation. WebView ignores SSL Certificate errors and accept any SSL Certificate. This application is vulnerable to MITM attacks",
      "severity": "High",
      "scanner": {
        "id": "mobsf",
        "name": "MobSF"
      },
      "location": {
        "file": "app/src/main/java/opensecurity/webviewignoressl/MainActivity.java",
        "start_line": 46
      },
      "identifiers": [
        {
          "type": "mobsf_rule_id",
          "name": "MobSF Rule ID android_webview_ignore_ssl",
          "value": "android_webview_ignore_ssl"
        }
      ]
    },
    {
      "id": "41fdde76088ea6d2523230feb894bbdc3cec5724642c4374bd0c4db72e3e6df3",
      "category": "sast",
      "name": "android_webview_ignore_ssl",
      "description": "Insecure WebView Implementation. WebView ignores SSL Certificate errors and accept any SSL Certificate. This application is vulnerable to MITM attacks",
      "severity": "High",
      "scanner": {
        "id": "mobsf",
        "name": "MobSF"
      },
      "location": {
        "file": "app/src/main/java/opensecurity/webviewignoressl/MainActivity.java",
        "start_line": 50
      },
      "identifiers": [
        {
          "type": "mobsf_rule_id",
          "name": "MobSF Rule ID android_webview_ignore_ssl",
          "value": "android_webview_ignore_ssl"
        }
      ]
    },
    {
      "id": "d33ef3d5977a283cba46c9d8e0d39630a550d9d3d1ca1fcc8d4a9a9cd3bdac76",
      "category": "sast",
      "name": "android_webview_ignore_ssl",
      "description": "Insecure WebView Implementation. WebView ignores SSL Certificate errors and accept any SSL Certificate. This application is vulnerable to MITM attacks",
      "severity": "High",
      "scanner": {
        "id": "mobsf",
        "name": "MobSF"
      },
      "location": {
        "file": "heavily/nested/module/hello/src/main/java/opensecurity/webviewignoressl/MainActivity.java",
        "start_line": 46
      },
      "identifiers": [
        {
          "type": "mobsf_rule_id",
          "name": "MobSF Rule ID android_webview_ignore_ssl",
          "value": "android_webview_ignore_ssl"
        }
      ]
    },
    {
      "id": "4b298f3ef23ca5f38d487f20598457c9691f538ce7a421430d3cbeb75b6d9eed",
      "category": "sast",
      "name": "android_webview_ignore_ssl",
      "description": "Insecure WebView Implementation. WebView ignores SSL Certificate errors and accept any SSL Certificate. This application is vulnerable to MITM attacks",
      "severity": "High",
      "scanner": {
        "id": "mobsf",
        "name": "MobSF"
      },
      "location": {
        "file": "heavily/nested/module/hello/src/main/java/opensecurity/webviewignoressl/MainActivity.java",
        "start_line": 50
      },
      "identifiers": [
        {
          "type": "mobsf_rule_id",
          "name": "MobSF Rule ID android_webview_ignore_ssl",
          "value": "android_webview_ignore_ssl"
        }
      ]
    }
  ],
  "dependency_files": [],
  "scan": {
    "analyzer": {
      "id": "mobsf",
      "name": "MobSF",
      "url": "https://gitlab.com/gitlab-org/security-products/analyzers/mobsf",
      "vendor": {
        "name": "GitLab"
      },
      "version": "4.5.5"
    },
    "scanner": {
      "id": "mobsf",
      "name": "MobSF",
      "url": "https://github.com/MobSF/Mobile-Security-Framework-MobSF",
      "vendor": {
        "name": "GitLab"
      },
      "version": "3.6.0-gitlab.1"
    },
    "type": "sast",
    "start_time": "2023-11-16T13:17:53",
    "end_time": "2023-11-16T13:17:55",
    "status": "success"
  }
}
