{
  "version": "15.0.7",
  "vulnerabilities": [
    {
      "id": "75fef85d64322a7fb411a082d95d36bc541dd8eef0011e54595ba65aa0cfdb0f",
      "category": "sast",
      "name": "ios_swift_sha1_collision",
      "description": "SHA1 is a weak hash known to have hash collisions.",
      "severity": "High",
      "scanner": {
        "id": "mobsf",
        "name": "MobSF"
      },
      "location": {
        "file": "App/Main.swift",
        "start_line": 20
      },
      "identifiers": [
        {
          "type": "mobsf_rule_id",
          "name": "MobSF Rule ID ios_swift_sha1_collision",
          "value": "ios_swift_sha1_collision"
        }
      ]
    }
  ],
  "dependency_files": [],
  "scan": {
    "analyzer": {
      "id": "mobsf",
      "name": "MobSF",
      "url": "https://gitlab.com/gitlab-org/security-products/analyzers/mobsf",
      "vendor": {
        "name": "GitLab"
      },
      "version": "4.5.5"
    },
    "scanner": {
      "id": "mobsf",
      "name": "MobSF",
      "url": "https://github.com/MobSF/Mobile-Security-Framework-MobSF",
      "vendor": {
        "name": "GitLab"
      },
      "version": "3.6.0-gitlab.1"
    },
    "type": "sast",
    "start_time": "2023-11-16T13:19:19",
    "end_time": "2023-11-16T13:19:20",
    "status": "success"
  }
}
