{
  "version": "15.0.7",
  "vulnerabilities": [
    {
      "id": "81bb0c9e026a2cb690e1aa42f5dde534d5abc1ef4af6f3329b9761f3f0eede87",
      "category": "sast",
      "name": "android_webview_ignore_ssl",
      "description": "Insecure WebView Implementation. WebView ignores SSL Certificate errors and accept any SSL Certificate. This application is vulnerable to MITM attacks",
      "severity": "High",
      "scanner": {
        "id": "mobsf",
        "name": "MobSF"
      },
      "location": {
        "file": "opensecurity/webviewignoressl/MainActivity.java",
        "start_line": 46,
        "end_line": 46
      },
      "identifiers": [
        {
          "type": "mobsf_rule_id",
          "name": "MobSF Rule ID android_webview_ignore_ssl",
          "value": "android_webview_ignore_ssl"
        }
      ]
    },
    {
      "id": "e49367d0573c521da1e7294251ca71d0acd533a8b56f91333e429fe2a9dd406f",
      "category": "sast",
      "name": "android_webview_ignore_ssl",
      "description": "Insecure WebView Implementation. WebView ignores SSL Certificate errors and accept any SSL Certificate. This application is vulnerable to MITM attacks",
      "severity": "High",
      "scanner": {
        "id": "mobsf",
        "name": "MobSF"
      },
      "location": {
        "file": "opensecurity/webviewignoressl/MainActivity.java",
        "start_line": 50,
        "end_line": 50
      },
      "identifiers": [
        {
          "type": "mobsf_rule_id",
          "name": "MobSF Rule ID android_webview_ignore_ssl",
          "value": "android_webview_ignore_ssl"
        }
      ]
    }
  ],
  "dependency_files": [],
  "scan": {
    "analyzer": {
      "id": "",
      "name": "",
      "vendor": {
        "name": ""
      },
      "version": ""
    },
    "scanner": {
      "id": "mobsf",
      "name": "MobSF",
      "url": "https://github.com/MobSF/Mobile-Security-Framework-MobSF",
      "vendor": {
        "name": "GitLab"
      },
      "version": ""
    },
    "type": ""
  }
}
